# Created at 2023-07-12T11:44:09.559
Thread dump for process (23932@UC-9891):
"main" 
   java.lang.Thread.State: TIMED_WAITING
        at java.base@17.0.7/jdk.internal.misc.Unsafe.park(Native Method)
        at java.base@17.0.7/java.util.concurrent.locks.LockSupport.parkNanos(LockSupport.java:252)
        at java.base@17.0.7/java.util.concurrent.locks.AbstractQueuedSynchronizer.acquire(AbstractQueuedSynchronizer.java:717)
        at java.base@17.0.7/java.util.concurrent.locks.AbstractQueuedSynchronizer.tryAcquireSharedNanos(AbstractQueuedSynchronizer.java:1074)
        at java.base@17.0.7/java.util.concurrent.Semaphore.tryAcquire(Semaphore.java:415)
        at app//org.apache.maven.surefire.booter.ForkedBooter.acquireOnePermit(ForkedBooter.java:524)
        at app//org.apache.maven.surefire.booter.ForkedBooter.acknowledgedExit(ForkedBooter.java:374)
        at app//org.apache.maven.surefire.booter.ForkedBooter.execute(ForkedBooter.java:178)
        at app//org.apache.maven.surefire.booter.ForkedBooter.run(ForkedBooter.java:507)
        at app//org.apache.maven.surefire.booter.ForkedBooter.main(ForkedBooter.java:495)

"Reference Handler" 
   java.lang.Thread.State: RUNNABLE
        at java.base@17.0.7/java.lang.ref.Reference.waitForReferencePendingList(Native Method)
        at java.base@17.0.7/java.lang.ref.Reference.processPendingReferences(Reference.java:253)
        at java.base@17.0.7/java.lang.ref.Reference$ReferenceHandler.run(Reference.java:215)

"Finalizer" 
   java.lang.Thread.State: WAITING
        at java.base@17.0.7/java.lang.Object.wait(Native Method)
        at java.base@17.0.7/java.lang.ref.ReferenceQueue.remove(ReferenceQueue.java:155)
        at java.base@17.0.7/java.lang.ref.ReferenceQueue.remove(ReferenceQueue.java:176)
        at java.base@17.0.7/java.lang.ref.Finalizer$FinalizerThread.run(Finalizer.java:172)

"Signal Dispatcher" 
   java.lang.Thread.State: RUNNABLE

"Attach Listener" 
   java.lang.Thread.State: RUNNABLE

"Notification Thread" 
   java.lang.Thread.State: RUNNABLE

"Common-Cleaner" 
   java.lang.Thread.State: TIMED_WAITING
        at java.base@17.0.7/java.lang.Object.wait(Native Method)
        at java.base@17.0.7/java.lang.ref.ReferenceQueue.remove(ReferenceQueue.java:155)
        at java.base@17.0.7/jdk.internal.ref.CleanerImpl.run(CleanerImpl.java:140)
        at java.base@17.0.7/java.lang.Thread.run(Thread.java:833)
        at java.base@17.0.7/jdk.internal.misc.InnocuousThread.run(InnocuousThread.java:162)

"surefire-forkedjvm-stream-flusher" 
   java.lang.Thread.State: TIMED_WAITING
        at java.base@17.0.7/jdk.internal.misc.Unsafe.park(Native Method)
        at java.base@17.0.7/java.util.concurrent.locks.LockSupport.parkNanos(LockSupport.java:252)
        at java.base@17.0.7/java.util.concurrent.locks.AbstractQueuedSynchronizer$ConditionObject.awaitNanos(AbstractQueuedSynchronizer.java:1672)
        at java.base@17.0.7/java.util.concurrent.ScheduledThreadPoolExecutor$DelayedWorkQueue.take(ScheduledThreadPoolExecutor.java:1182)
        at java.base@17.0.7/java.util.concurrent.ScheduledThreadPoolExecutor$DelayedWorkQueue.take(ScheduledThreadPoolExecutor.java:899)
        at java.base@17.0.7/java.util.concurrent.ThreadPoolExecutor.getTask(ThreadPoolExecutor.java:1062)
        at java.base@17.0.7/java.util.concurrent.ThreadPoolExecutor.runWorker(ThreadPoolExecutor.java:1122)
        at java.base@17.0.7/java.util.concurrent.ThreadPoolExecutor$Worker.run(ThreadPoolExecutor.java:635)
        at java.base@17.0.7/java.lang.Thread.run(Thread.java:833)

"surefire-forkedjvm-command-thread" 
   java.lang.Thread.State: RUNNABLE
        at java.management@17.0.7/sun.management.ThreadImpl.getThreadInfo1(Native Method)
        at java.management@17.0.7/sun.management.ThreadImpl.getThreadInfo(ThreadImpl.java:197)
        at app//org.apache.maven.surefire.booter.ForkedBooter.generateThreadDump(ForkedBooter.java:579)
        at app//org.apache.maven.surefire.booter.ForkedBooter.access$600(ForkedBooter.java:79)
        at app//org.apache.maven.surefire.booter.ForkedBooter$4.update(ForkedBooter.java:322)
        at app//org.apache.maven.surefire.booter.CommandReader$CommandRunnable.callListeners(CommandReader.java:357)
        at app//org.apache.maven.surefire.booter.CommandReader$CommandRunnable.run(CommandReader.java:309)
        at java.base@17.0.7/java.lang.Thread.run(Thread.java:833)

"oracle.jdbc.driver.BlockSource.ThreadedCachingBlockSource.BlockReleaser" 
   java.lang.Thread.State: TIMED_WAITING
        at java.base@17.0.7/jdk.internal.misc.Unsafe.park(Native Method)
        at java.base@17.0.7/java.util.concurrent.locks.LockSupport.parkNanos(LockSupport.java:252)
        at java.base@17.0.7/java.util.concurrent.locks.AbstractQueuedSynchronizer$ConditionObject.awaitNanos(AbstractQueuedSynchronizer.java:1672)
        at app//oracle.jdbc.internal.Monitor$WaitableMonitor.monitorWait(Monitor.java:258)
        at app//oracle.jdbc.internal.Monitor$WaitableMonitor.monitorWait(Monitor.java:240)
        at app//oracle.jdbc.driver.BlockSource$ThreadedCachingBlockSource$BlockReleaser.run(BlockSource.java:345)

"InterruptTimer" 
   java.lang.Thread.State: TIMED_WAITING
        at java.base@17.0.7/java.lang.Object.wait(Native Method)
        at java.base@17.0.7/java.util.TimerThread.mainLoop(Timer.java:563)
        at java.base@17.0.7/java.util.TimerThread.run(Timer.java:516)

"OJDBC-WORKER-THREAD-1" 
   java.lang.Thread.State: TIMED_WAITING
        at java.base@17.0.7/jdk.internal.misc.Unsafe.park(Native Method)
        at java.base@17.0.7/java.util.concurrent.locks.LockSupport.parkNanos(LockSupport.java:252)
        at java.base@17.0.7/java.util.concurrent.SynchronousQueue$TransferStack.transfer(SynchronousQueue.java:401)
        at java.base@17.0.7/java.util.concurrent.SynchronousQueue.poll(SynchronousQueue.java:903)
        at java.base@17.0.7/java.util.concurrent.ThreadPoolExecutor.getTask(ThreadPoolExecutor.java:1061)
        at java.base@17.0.7/java.util.concurrent.ThreadPoolExecutor.runWorker(ThreadPoolExecutor.java:1122)
        at java.base@17.0.7/java.util.concurrent.ThreadPoolExecutor$Worker.run(ThreadPoolExecutor.java:635)
        at java.base@17.0.7/java.lang.Thread.run(Thread.java:833)

"HikariPool-1 housekeeper" 
   java.lang.Thread.State: TIMED_WAITING
        at java.base@17.0.7/jdk.internal.misc.Unsafe.park(Native Method)
        at java.base@17.0.7/java.util.concurrent.locks.LockSupport.parkNanos(LockSupport.java:252)
        at java.base@17.0.7/java.util.concurrent.locks.AbstractQueuedSynchronizer$ConditionObject.awaitNanos(AbstractQueuedSynchronizer.java:1672)
        at java.base@17.0.7/java.util.concurrent.ScheduledThreadPoolExecutor$DelayedWorkQueue.take(ScheduledThreadPoolExecutor.java:1182)
        at java.base@17.0.7/java.util.concurrent.ScheduledThreadPoolExecutor$DelayedWorkQueue.take(ScheduledThreadPoolExecutor.java:899)
        at java.base@17.0.7/java.util.concurrent.ThreadPoolExecutor.getTask(ThreadPoolExecutor.java:1062)
        at java.base@17.0.7/java.util.concurrent.ThreadPoolExecutor.runWorker(ThreadPoolExecutor.java:1122)
        at java.base@17.0.7/java.util.concurrent.ThreadPoolExecutor$Worker.run(ThreadPoolExecutor.java:635)
        at java.base@17.0.7/java.lang.Thread.run(Thread.java:833)

"surefire-forkedjvm-last-ditch-daemon-shutdown-thread-30s" 
   java.lang.Thread.State: TIMED_WAITING
        at java.base@17.0.7/jdk.internal.misc.Unsafe.park(Native Method)
        at java.base@17.0.7/java.util.concurrent.locks.LockSupport.parkNanos(LockSupport.java:252)
        at java.base@17.0.7/java.util.concurrent.locks.AbstractQueuedSynchronizer$ConditionObject.awaitNanos(AbstractQueuedSynchronizer.java:1672)
        at java.base@17.0.7/java.util.concurrent.ScheduledThreadPoolExecutor$DelayedWorkQueue.take(ScheduledThreadPoolExecutor.java:1182)
        at java.base@17.0.7/java.util.concurrent.ScheduledThreadPoolExecutor$DelayedWorkQueue.take(ScheduledThreadPoolExecutor.java:899)
        at java.base@17.0.7/java.util.concurrent.ThreadPoolExecutor.getTask(ThreadPoolExecutor.java:1062)
        at java.base@17.0.7/java.util.concurrent.ThreadPoolExecutor.runWorker(ThreadPoolExecutor.java:1122)
        at java.base@17.0.7/java.util.concurrent.ThreadPoolExecutor$Worker.run(ThreadPoolExecutor.java:635)
        at java.base@17.0.7/java.lang.Thread.run(Thread.java:833)



# Created at 2023-07-12T11:44:09.572
Exiting self fork JVM. Received SHUTDOWN command from Maven shutdown hook.
Thread dump before exiting the process (23932@UC-9891):
"main" 
   java.lang.Thread.State: TIMED_WAITING
        at java.base@17.0.7/jdk.internal.misc.Unsafe.park(Native Method)
        at java.base@17.0.7/java.util.concurrent.locks.LockSupport.parkNanos(LockSupport.java:252)
        at java.base@17.0.7/java.util.concurrent.locks.AbstractQueuedSynchronizer.acquire(AbstractQueuedSynchronizer.java:717)
        at java.base@17.0.7/java.util.concurrent.locks.AbstractQueuedSynchronizer.tryAcquireSharedNanos(AbstractQueuedSynchronizer.java:1074)
        at java.base@17.0.7/java.util.concurrent.Semaphore.tryAcquire(Semaphore.java:415)
        at app//org.apache.maven.surefire.booter.ForkedBooter.acquireOnePermit(ForkedBooter.java:524)
        at app//org.apache.maven.surefire.booter.ForkedBooter.acknowledgedExit(ForkedBooter.java:374)
        at app//org.apache.maven.surefire.booter.ForkedBooter.execute(ForkedBooter.java:178)
        at app//org.apache.maven.surefire.booter.ForkedBooter.run(ForkedBooter.java:507)
        at app//org.apache.maven.surefire.booter.ForkedBooter.main(ForkedBooter.java:495)

"Reference Handler" 
   java.lang.Thread.State: RUNNABLE
        at java.base@17.0.7/java.lang.ref.Reference.waitForReferencePendingList(Native Method)
        at java.base@17.0.7/java.lang.ref.Reference.processPendingReferences(Reference.java:253)
        at java.base@17.0.7/java.lang.ref.Reference$ReferenceHandler.run(Reference.java:215)

"Finalizer" 
   java.lang.Thread.State: WAITING
        at java.base@17.0.7/java.lang.Object.wait(Native Method)
        at java.base@17.0.7/java.lang.ref.ReferenceQueue.remove(ReferenceQueue.java:155)
        at java.base@17.0.7/java.lang.ref.ReferenceQueue.remove(ReferenceQueue.java:176)
        at java.base@17.0.7/java.lang.ref.Finalizer$FinalizerThread.run(Finalizer.java:172)

"Signal Dispatcher" 
   java.lang.Thread.State: RUNNABLE

"Attach Listener" 
   java.lang.Thread.State: RUNNABLE

"Notification Thread" 
   java.lang.Thread.State: RUNNABLE

"Common-Cleaner" 
   java.lang.Thread.State: TIMED_WAITING
        at java.base@17.0.7/java.lang.Object.wait(Native Method)
        at java.base@17.0.7/java.lang.ref.ReferenceQueue.remove(ReferenceQueue.java:155)
        at java.base@17.0.7/jdk.internal.ref.CleanerImpl.run(CleanerImpl.java:140)
        at java.base@17.0.7/java.lang.Thread.run(Thread.java:833)
        at java.base@17.0.7/jdk.internal.misc.InnocuousThread.run(InnocuousThread.java:162)

"surefire-forkedjvm-stream-flusher" 
   java.lang.Thread.State: TIMED_WAITING
        at java.base@17.0.7/jdk.internal.misc.Unsafe.park(Native Method)
        at java.base@17.0.7/java.util.concurrent.locks.LockSupport.parkNanos(LockSupport.java:252)
        at java.base@17.0.7/java.util.concurrent.locks.AbstractQueuedSynchronizer$ConditionObject.awaitNanos(AbstractQueuedSynchronizer.java:1672)
        at java.base@17.0.7/java.util.concurrent.ScheduledThreadPoolExecutor$DelayedWorkQueue.take(ScheduledThreadPoolExecutor.java:1182)
        at java.base@17.0.7/java.util.concurrent.ScheduledThreadPoolExecutor$DelayedWorkQueue.take(ScheduledThreadPoolExecutor.java:899)
        at java.base@17.0.7/java.util.concurrent.ThreadPoolExecutor.getTask(ThreadPoolExecutor.java:1062)
        at java.base@17.0.7/java.util.concurrent.ThreadPoolExecutor.runWorker(ThreadPoolExecutor.java:1122)
        at java.base@17.0.7/java.util.concurrent.ThreadPoolExecutor$Worker.run(ThreadPoolExecutor.java:635)
        at java.base@17.0.7/java.lang.Thread.run(Thread.java:833)

"surefire-forkedjvm-command-thread" 
   java.lang.Thread.State: RUNNABLE
        at java.management@17.0.7/sun.management.ThreadImpl.getThreadInfo1(Native Method)
        at java.management@17.0.7/sun.management.ThreadImpl.getThreadInfo(ThreadImpl.java:197)
        at app//org.apache.maven.surefire.booter.ForkedBooter.generateThreadDump(ForkedBooter.java:579)
        at app//org.apache.maven.surefire.booter.ForkedBooter.access$600(ForkedBooter.java:79)
        at app//org.apache.maven.surefire.booter.ForkedBooter$4.update(ForkedBooter.java:315)
        at app//org.apache.maven.surefire.booter.CommandReader$CommandRunnable.callListeners(CommandReader.java:357)
        at app//org.apache.maven.surefire.booter.CommandReader$CommandRunnable.exitByConfiguration(CommandReader.java:367)
        at app//org.apache.maven.surefire.booter.CommandReader$CommandRunnable.run(CommandReader.java:330)
        at java.base@17.0.7/java.lang.Thread.run(Thread.java:833)

"oracle.jdbc.driver.BlockSource.ThreadedCachingBlockSource.BlockReleaser" 
   java.lang.Thread.State: TIMED_WAITING
        at java.base@17.0.7/jdk.internal.misc.Unsafe.park(Native Method)
        at java.base@17.0.7/java.util.concurrent.locks.LockSupport.parkNanos(LockSupport.java:252)
        at java.base@17.0.7/java.util.concurrent.locks.AbstractQueuedSynchronizer$ConditionObject.awaitNanos(AbstractQueuedSynchronizer.java:1672)
        at app//oracle.jdbc.internal.Monitor$WaitableMonitor.monitorWait(Monitor.java:258)
        at app//oracle.jdbc.internal.Monitor$WaitableMonitor.monitorWait(Monitor.java:240)
        at app//oracle.jdbc.driver.BlockSource$ThreadedCachingBlockSource$BlockReleaser.run(BlockSource.java:345)

"InterruptTimer" 
   java.lang.Thread.State: TIMED_WAITING
        at java.base@17.0.7/java.lang.Object.wait(Native Method)
        at java.base@17.0.7/java.util.TimerThread.mainLoop(Timer.java:563)
        at java.base@17.0.7/java.util.TimerThread.run(Timer.java:516)

"OJDBC-WORKER-THREAD-1" 
   java.lang.Thread.State: TIMED_WAITING
        at java.base@17.0.7/jdk.internal.misc.Unsafe.park(Native Method)
        at java.base@17.0.7/java.util.concurrent.locks.LockSupport.parkNanos(LockSupport.java:252)
        at java.base@17.0.7/java.util.concurrent.SynchronousQueue$TransferStack.transfer(SynchronousQueue.java:401)
        at java.base@17.0.7/java.util.concurrent.SynchronousQueue.poll(SynchronousQueue.java:903)
        at java.base@17.0.7/java.util.concurrent.ThreadPoolExecutor.getTask(ThreadPoolExecutor.java:1061)
        at java.base@17.0.7/java.util.concurrent.ThreadPoolExecutor.runWorker(ThreadPoolExecutor.java:1122)
        at java.base@17.0.7/java.util.concurrent.ThreadPoolExecutor$Worker.run(ThreadPoolExecutor.java:635)
        at java.base@17.0.7/java.lang.Thread.run(Thread.java:833)

"HikariPool-1 housekeeper" 
   java.lang.Thread.State: TIMED_WAITING
        at java.base@17.0.7/jdk.internal.misc.Unsafe.park(Native Method)
        at java.base@17.0.7/java.util.concurrent.locks.LockSupport.parkNanos(LockSupport.java:252)
        at java.base@17.0.7/java.util.concurrent.locks.AbstractQueuedSynchronizer$ConditionObject.awaitNanos(AbstractQueuedSynchronizer.java:1672)
        at java.base@17.0.7/java.util.concurrent.ScheduledThreadPoolExecutor$DelayedWorkQueue.take(ScheduledThreadPoolExecutor.java:1182)
        at java.base@17.0.7/java.util.concurrent.ScheduledThreadPoolExecutor$DelayedWorkQueue.take(ScheduledThreadPoolExecutor.java:899)
        at java.base@17.0.7/java.util.concurrent.ThreadPoolExecutor.getTask(ThreadPoolExecutor.java:1062)
        at java.base@17.0.7/java.util.concurrent.ThreadPoolExecutor.runWorker(ThreadPoolExecutor.java:1122)
        at java.base@17.0.7/java.util.concurrent.ThreadPoolExecutor$Worker.run(ThreadPoolExecutor.java:635)
        at java.base@17.0.7/java.lang.Thread.run(Thread.java:833)

"surefire-forkedjvm-last-ditch-daemon-shutdown-thread-30s" 
   java.lang.Thread.State: TIMED_WAITING
        at java.base@17.0.7/jdk.internal.misc.Unsafe.park(Native Method)
        at java.base@17.0.7/java.util.concurrent.locks.LockSupport.parkNanos(LockSupport.java:252)
        at java.base@17.0.7/java.util.concurrent.locks.AbstractQueuedSynchronizer$ConditionObject.awaitNanos(AbstractQueuedSynchronizer.java:1672)
        at java.base@17.0.7/java.util.concurrent.ScheduledThreadPoolExecutor$DelayedWorkQueue.take(ScheduledThreadPoolExecutor.java:1182)
        at java.base@17.0.7/java.util.concurrent.ScheduledThreadPoolExecutor$DelayedWorkQueue.take(ScheduledThreadPoolExecutor.java:899)
        at java.base@17.0.7/java.util.concurrent.ThreadPoolExecutor.getTask(ThreadPoolExecutor.java:1062)
        at java.base@17.0.7/java.util.concurrent.ThreadPoolExecutor.runWorker(ThreadPoolExecutor.java:1122)
        at java.base@17.0.7/java.util.concurrent.ThreadPoolExecutor$Worker.run(ThreadPoolExecutor.java:635)
        at java.base@17.0.7/java.lang.Thread.run(Thread.java:833)



